[{"product_id":1,"max_date":"2024-11-12"},
{"product_id":2,"max_date":"2024-01-17"},
{"product_id":3,"max_date":"2023-10-24"},
{"product_id":4,"max_date":"2024-09-27"},
{"product_id":5,"max_date":"2024-11-24"},
{"product_id":6,"max_date":"2024-09-28"},
{"product_id":7,"max_date":"2023-10-23"},
{"product_id":8,"max_date":"2024-11-14"},
{"product_id":9,"max_date":"2024-11-23"},
{"product_id":10,"max_date":"2023-10-02"},
{"product_id":11,"max_date":"2024-07-20"},
{"product_id":12,"max_date":"2024-09-21"},
{"product_id":13,"max_date":"2024-09-04"},
{"product_id":14,"max_date":"2024-01-21"},
{"product_id":15,"max_date":"2023-12-23"},
{"product_id":16,"max_date":"2023-11-12"},
{"product_id":17,"max_date":"2024-09-13"},
{"product_id":18,"max_date":"2024-11-12"},
{"product_id":19,"max_date":"2024-04-05"},
{"product_id":20,"max_date":"2024-04-20"},
{"product_id":21,"max_date":"2024-01-22"},
{"product_id":22,"max_date":"2024-04-29"},
{"product_id":23,"max_date":"2024-09-19"},
{"product_id":24,"max_date":"2024-04-01"},
{"product_id":25,"max_date":"2024-08-31"},
{"product_id":26,"max_date":"2024-04-05"},
{"product_id":27,"max_date":"2024-05-19"},
{"product_id":28,"max_date":"2024-05-05"},
{"product_id":29,"max_date":"2024-01-04"},
{"product_id":30,"max_date":"2024-01-07"},
{"product_id":31,"max_date":"2024-08-20"},
{"product_id":32,"max_date":"2024-02-18"},
{"product_id":33,"max_date":"2024-01-20"},
{"product_id":34,"max_date":"2024-05-25"},
{"product_id":35,"max_date":"2024-04-30"},
{"product_id":36,"max_date":"2024-01-22"},
{"product_id":37,"max_date":"2024-06-02"},
{"product_id":38,"max_date":"2024-05-09"},
{"product_id":39,"max_date":"2024-04-13"},
{"product_id":40,"max_date":"2024-09-02"},
{"product_id":41,"max_date":"2024-10-02"},
{"product_id":42,"max_date":"2024-02-19"},
{"product_id":43,"max_date":"2024-04-20"},
{"product_id":44,"max_date":"2024-11-23"},
{"product_id":45,"max_date":"2024-10-31"},
{"product_id":46,"max_date":"2024-03-16"},
{"product_id":47,"max_date":"2024-04-04"},
{"product_id":48,"max_date":"2024-04-11"},
{"product_id":49,"max_date":"2023-10-06"},
{"product_id":50,"max_date":"2024-06-10"},
{"product_id":51,"max_date":"2024-10-04"},
{"product_id":52,"max_date":"2024-04-26"},
{"product_id":53,"max_date":"2024-01-26"},
{"product_id":54,"max_date":"2024-06-12"},
{"product_id":55,"max_date":"2024-11-07"},
{"product_id":56,"max_date":"2023-11-30"},
{"product_id":57,"max_date":"2024-08-10"},
{"product_id":58,"max_date":"2024-07-22"},
{"product_id":59,"max_date":"2024-10-21"},
{"product_id":60,"max_date":"2024-05-18"},
{"product_id":61,"max_date":"2024-05-22"},
{"product_id":62,"max_date":"2024-08-20"},
{"product_id":63,"max_date":"2024-02-22"},
{"product_id":64,"max_date":"2023-11-30"},
{"product_id":65,"max_date":"2024-04-30"},
{"product_id":66,"max_date":"2024-03-09"},
{"product_id":67,"max_date":"2024-02-13"},
{"product_id":68,"max_date":"2024-03-22"},
{"product_id":69,"max_date":"2024-04-21"},
{"product_id":70,"max_date":"2024-03-05"},
{"product_id":71,"max_date":"2024-04-27"},
{"product_id":72,"max_date":"2024-06-14"},
{"product_id":73,"max_date":"2024-05-14"},
{"product_id":74,"max_date":"2024-01-30"},
{"product_id":75,"max_date":"2024-02-24"},
{"product_id":76,"max_date":"2024-02-18"},
{"product_id":77,"max_date":"2024-10-27"},
{"product_id":78,"max_date":"2024-02-25"},
{"product_id":79,"max_date":"2024-03-31"},
{"product_id":80,"max_date":"2024-03-16"},
{"product_id":81,"max_date":"2024-04-24"},
{"product_id":82,"max_date":"2024-06-07"},
{"product_id":83,"max_date":"2023-11-21"},
{"product_id":84,"max_date":"2024-09-08"},
{"product_id":85,"max_date":"2024-03-27"},
{"product_id":86,"max_date":"2024-01-13"},
{"product_id":87,"max_date":"2024-05-25"},
{"product_id":88,"max_date":"2024-02-07"},
{"product_id":89,"max_date":"2023-12-29"},
{"product_id":90,"max_date":"2024-10-27"},
{"product_id":91,"max_date":"2024-04-01"},
{"product_id":92,"max_date":"2024-06-27"},
{"product_id":93,"max_date":"2023-12-24"},
{"product_id":94,"max_date":"2024-07-12"},
{"product_id":95,"max_date":"2024-02-25"},
{"product_id":96,"max_date":"2024-11-07"},
{"product_id":97,"max_date":"2024-06-09"},
{"product_id":98,"max_date":"2024-08-11"},
{"product_id":99,"max_date":"2024-09-04"},
{"product_id":100,"max_date":"2024-07-01"},
{"product_id":101,"max_date":"2023-10-22"},
{"product_id":102,"max_date":"2024-04-01"},
{"product_id":103,"max_date":"2024-08-17"},
{"product_id":104,"max_date":"2024-08-08"},
{"product_id":105,"max_date":"2024-06-11"},
{"product_id":106,"max_date":"2024-04-29"},
{"product_id":107,"max_date":"2024-01-04"},
{"product_id":108,"max_date":"2023-12-06"},
{"product_id":109,"max_date":"2024-05-03"},
{"product_id":110,"max_date":"2023-12-11"},
{"product_id":111,"max_date":"2024-07-02"},
{"product_id":112,"max_date":"2024-08-21"},
{"product_id":113,"max_date":"2024-04-19"},
{"product_id":114,"max_date":"2024-05-30"},
{"product_id":115,"max_date":"2024-03-22"},
{"product_id":116,"max_date":"2024-08-29"},
{"product_id":117,"max_date":"2024-05-29"},
{"product_id":118,"max_date":"2024-04-27"},
{"product_id":119,"max_date":"2024-04-17"},
{"product_id":120,"max_date":"2024-09-18"},
{"product_id":121,"max_date":"2024-05-27"},
{"product_id":122,"max_date":"2023-12-22"},
{"product_id":123,"max_date":"2024-04-02"},
{"product_id":124,"max_date":"2023-10-07"},
{"product_id":125,"max_date":"2024-01-27"},
{"product_id":126,"max_date":"2024-07-29"},
{"product_id":127,"max_date":"2024-11-11"},
{"product_id":128,"max_date":"2024-11-01"},
{"product_id":129,"max_date":"2023-10-02"},
{"product_id":130,"max_date":"2023-12-25"},
{"product_id":131,"max_date":"2024-02-21"},
{"product_id":132,"max_date":"2024-11-22"},
{"product_id":133,"max_date":"2024-11-23"},
{"product_id":134,"max_date":"2023-12-05"},
{"product_id":135,"max_date":"2024-10-17"},
{"product_id":136,"max_date":"2024-09-06"},
{"product_id":137,"max_date":"2024-04-14"},
{"product_id":138,"max_date":"2023-10-01"},
{"product_id":139,"max_date":"2023-12-22"},
{"product_id":140,"max_date":"2024-02-13"},
{"product_id":141,"max_date":"2024-04-05"},
{"product_id":142,"max_date":"2023-12-26"},
{"product_id":143,"max_date":"2024-01-23"},
{"product_id":144,"max_date":"2024-03-15"},
{"product_id":145,"max_date":"2024-05-19"},
{"product_id":146,"max_date":"2024-06-03"},
{"product_id":147,"max_date":"2024-10-14"},
{"product_id":148,"max_date":"2023-10-27"},
{"product_id":149,"max_date":"2023-11-25"},
{"product_id":150,"max_date":"2023-11-09"},
{"product_id":151,"max_date":"2024-11-03"},
{"product_id":152,"max_date":"2023-12-24"},
{"product_id":153,"max_date":"2024-07-18"},
{"product_id":154,"max_date":"2024-07-08"},
{"product_id":155,"max_date":"2024-02-10"},
{"product_id":156,"max_date":"2024-06-18"},
{"product_id":157,"max_date":"2024-11-17"},
{"product_id":158,"max_date":"2024-11-08"},
{"product_id":159,"max_date":"2024-04-11"},
{"product_id":160,"max_date":"2023-12-02"},
{"product_id":161,"max_date":"2023-12-27"},
{"product_id":162,"max_date":"2024-07-28"},
{"product_id":163,"max_date":"2024-03-08"},
{"product_id":164,"max_date":"2024-11-13"},
{"product_id":165,"max_date":"2024-05-03"},
{"product_id":166,"max_date":"2024-08-25"},
{"product_id":167,"max_date":"2023-11-01"},
{"product_id":168,"max_date":"2024-08-25"},
{"product_id":169,"max_date":"2024-06-18"},
{"product_id":170,"max_date":"2024-10-17"},
{"product_id":171,"max_date":"2024-07-25"},
{"product_id":172,"max_date":"2023-10-25"},
{"product_id":173,"max_date":"2024-09-07"},
{"product_id":174,"max_date":"2024-01-13"},
{"product_id":175,"max_date":"2024-06-03"},
{"product_id":176,"max_date":"2023-11-12"},
{"product_id":177,"max_date":"2024-10-06"},
{"product_id":178,"max_date":"2024-06-09"},
{"product_id":179,"max_date":"2024-08-11"},
{"product_id":180,"max_date":"2023-12-22"},
{"product_id":181,"max_date":"2024-01-25"},
{"product_id":182,"max_date":"2024-08-07"},
{"product_id":183,"max_date":"2023-11-11"},
{"product_id":184,"max_date":"2024-09-02"},
{"product_id":185,"max_date":"2023-10-01"},
{"product_id":186,"max_date":"2023-10-26"},
{"product_id":187,"max_date":"2024-07-06"},
{"product_id":188,"max_date":"2023-10-22"},
{"product_id":189,"max_date":"2023-11-15"},
{"product_id":190,"max_date":"2024-11-14"},
{"product_id":191,"max_date":"2024-06-08"},
{"product_id":192,"max_date":"2023-10-13"},
{"product_id":193,"max_date":"2023-12-10"},
{"product_id":194,"max_date":"2024-10-11"},
{"product_id":195,"max_date":"2023-11-11"},
{"product_id":196,"max_date":"2024-06-16"},
{"product_id":197,"max_date":"2024-11-13"},
{"product_id":198,"max_date":"2024-11-14"},
{"product_id":199,"max_date":"2024-06-02"},
{"product_id":200,"max_date":"2024-01-13"},
{"product_id":201,"max_date":"2024-07-29"},
{"product_id":202,"max_date":"2024-03-24"},
{"product_id":203,"max_date":"2023-10-19"},
{"product_id":204,"max_date":"2024-06-07"},
{"product_id":205,"max_date":"2023-12-28"},
{"product_id":206,"max_date":"2024-09-17"},
{"product_id":207,"max_date":"2024-07-16"},
{"product_id":208,"max_date":"2024-11-25"},
{"product_id":209,"max_date":"2024-05-31"},
{"product_id":210,"max_date":"2024-06-21"},
{"product_id":211,"max_date":"2023-10-02"},
{"product_id":212,"max_date":"2024-04-20"},
{"product_id":213,"max_date":"2024-07-21"},
{"product_id":214,"max_date":"2024-02-13"},
{"product_id":215,"max_date":"2024-02-13"},
{"product_id":216,"max_date":"2024-03-15"},
{"product_id":217,"max_date":"2024-02-08"},
{"product_id":218,"max_date":"2024-04-10"},
{"product_id":219,"max_date":"2024-08-27"},
{"product_id":220,"max_date":"2024-01-08"},
{"product_id":221,"max_date":"2024-05-25"},
{"product_id":222,"max_date":"2024-01-12"},
{"product_id":223,"max_date":"2024-07-10"},
{"product_id":224,"max_date":"2024-04-28"},
{"product_id":225,"max_date":"2024-04-04"},
{"product_id":226,"max_date":"2024-10-19"},
{"product_id":227,"max_date":"2024-05-25"},
{"product_id":228,"max_date":"2023-11-06"},
{"product_id":229,"max_date":"2024-03-27"},
{"product_id":230,"max_date":"2024-06-07"},
{"product_id":231,"max_date":"2024-02-11"},
{"product_id":232,"max_date":"2024-11-29"},
{"product_id":233,"max_date":"2024-10-15"},
{"product_id":234,"max_date":"2023-12-11"},
{"product_id":235,"max_date":"2024-07-21"},
{"product_id":236,"max_date":"2024-07-17"},
{"product_id":237,"max_date":"2024-04-23"},
{"product_id":238,"max_date":"2023-11-27"},
{"product_id":239,"max_date":"2024-06-28"},
{"product_id":240,"max_date":"2024-06-24"},
{"product_id":241,"max_date":"2023-12-03"},
{"product_id":242,"max_date":"2024-11-26"},
{"product_id":243,"max_date":"2024-04-27"},
{"product_id":244,"max_date":"2024-01-02"},
{"product_id":245,"max_date":"2024-08-24"},
{"product_id":246,"max_date":"2024-05-11"},
{"product_id":247,"max_date":"2023-10-31"},
{"product_id":248,"max_date":"2024-06-08"},
{"product_id":249,"max_date":"2024-07-09"},
{"product_id":250,"max_date":"2024-04-16"},
{"product_id":251,"max_date":"2024-11-30"},
{"product_id":252,"max_date":"2023-10-13"},
{"product_id":253,"max_date":"2024-04-03"},
{"product_id":254,"max_date":"2024-04-20"},
{"product_id":255,"max_date":"2024-11-02"},
{"product_id":256,"max_date":"2024-04-14"},
{"product_id":257,"max_date":"2023-12-07"},
{"product_id":258,"max_date":"2023-12-12"},
{"product_id":259,"max_date":"2024-05-13"},
{"product_id":260,"max_date":"2024-08-05"},
{"product_id":261,"max_date":"2024-09-29"},
{"product_id":262,"max_date":"2024-04-05"},
{"product_id":263,"max_date":"2024-11-23"},
{"product_id":264,"max_date":"2024-11-22"},
{"product_id":265,"max_date":"2024-02-24"},
{"product_id":266,"max_date":"2024-04-09"},
{"product_id":267,"max_date":"2024-03-10"},
{"product_id":268,"max_date":"2023-10-03"},
{"product_id":269,"max_date":"2024-11-02"},
{"product_id":270,"max_date":"2024-04-15"},
{"product_id":271,"max_date":"2024-09-14"},
{"product_id":272,"max_date":"2023-11-04"},
{"product_id":273,"max_date":"2023-11-27"},
{"product_id":274,"max_date":"2024-10-11"},
{"product_id":275,"max_date":"2024-09-16"},
{"product_id":276,"max_date":"2023-10-03"},
{"product_id":277,"max_date":"2024-02-14"},
{"product_id":278,"max_date":"2024-08-31"},
{"product_id":279,"max_date":"2024-04-27"},
{"product_id":280,"max_date":"2023-12-05"},
{"product_id":281,"max_date":"2024-06-02"},
{"product_id":282,"max_date":"2024-05-04"},
{"product_id":283,"max_date":"2024-08-20"},
{"product_id":284,"max_date":"2024-01-07"},
{"product_id":285,"max_date":"2024-01-26"},
{"product_id":286,"max_date":"2024-11-28"},
{"product_id":287,"max_date":"2023-12-05"},
{"product_id":288,"max_date":"2024-05-24"},
{"product_id":289,"max_date":"2024-06-02"},
{"product_id":290,"max_date":"2024-05-04"},
{"product_id":291,"max_date":"2024-05-29"},
{"product_id":292,"max_date":"2024-08-25"},
{"product_id":293,"max_date":"2023-10-26"},
{"product_id":294,"max_date":"2024-02-20"},
{"product_id":295,"max_date":"2023-10-13"},
{"product_id":296,"max_date":"2024-05-01"},
{"product_id":297,"max_date":"2024-06-01"},
{"product_id":298,"max_date":"2023-11-18"},
{"product_id":299,"max_date":"2024-04-05"},
{"product_id":300,"max_date":"2023-11-13"},
{"product_id":301,"max_date":"2024-09-30"},
{"product_id":302,"max_date":"2024-01-12"},
{"product_id":303,"max_date":"2024-04-27"},
{"product_id":304,"max_date":"2024-05-12"},
{"product_id":305,"max_date":"2024-01-09"},
{"product_id":306,"max_date":"2024-09-07"},
{"product_id":307,"max_date":"2024-01-04"},
{"product_id":308,"max_date":"2024-09-26"},
{"product_id":309,"max_date":"2024-10-23"},
{"product_id":310,"max_date":"2023-11-09"},
{"product_id":311,"max_date":"2024-04-16"},
{"product_id":312,"max_date":"2024-03-19"},
{"product_id":313,"max_date":"2023-11-16"},
{"product_id":314,"max_date":"2024-02-13"},
{"product_id":315,"max_date":"2024-08-16"},
{"product_id":316,"max_date":"2023-10-03"},
{"product_id":317,"max_date":"2023-12-31"},
{"product_id":318,"max_date":"2023-10-20"},
{"product_id":319,"max_date":"2024-02-26"},
{"product_id":320,"max_date":"2024-05-16"},
{"product_id":321,"max_date":"2024-05-18"},
{"product_id":322,"max_date":"2024-05-13"},
{"product_id":323,"max_date":"2024-06-05"},
{"product_id":324,"max_date":"2024-04-03"},
{"product_id":325,"max_date":"2024-11-13"},
{"product_id":326,"max_date":"2024-10-25"},
{"product_id":327,"max_date":"2023-10-05"},
{"product_id":328,"max_date":"2023-10-30"},
{"product_id":329,"max_date":"2024-05-19"},
{"product_id":330,"max_date":"2024-09-23"},
{"product_id":331,"max_date":"2024-01-06"},
{"product_id":332,"max_date":"2024-08-18"},
{"product_id":333,"max_date":"2023-12-21"},
{"product_id":334,"max_date":"2024-06-12"},
{"product_id":335,"max_date":"2024-03-13"},
{"product_id":336,"max_date":"2023-10-12"},
{"product_id":337,"max_date":"2024-11-09"},
{"product_id":338,"max_date":"2024-06-13"},
{"product_id":339,"max_date":"2024-04-01"},
{"product_id":340,"max_date":"2023-12-01"},
{"product_id":341,"max_date":"2024-06-04"},
{"product_id":342,"max_date":"2024-08-21"},
{"product_id":343,"max_date":"2023-11-13"},
{"product_id":344,"max_date":"2024-03-01"},
{"product_id":345,"max_date":"2023-12-08"},
{"product_id":346,"max_date":"2024-03-22"},
{"product_id":347,"max_date":"2024-11-08"},
{"product_id":348,"max_date":"2024-01-19"},
{"product_id":349,"max_date":"2024-05-18"},
{"product_id":350,"max_date":"2024-07-07"},
{"product_id":351,"max_date":"2023-10-30"},
{"product_id":352,"max_date":"2024-06-10"},
{"product_id":353,"max_date":"2024-08-18"},
{"product_id":354,"max_date":"2024-07-16"},
{"product_id":355,"max_date":"2024-03-17"},
{"product_id":356,"max_date":"2023-11-09"},
{"product_id":357,"max_date":"2023-11-18"},
{"product_id":358,"max_date":"2024-05-12"},
{"product_id":359,"max_date":"2024-09-19"},
{"product_id":360,"max_date":"2023-10-25"},
{"product_id":361,"max_date":"2024-07-17"},
{"product_id":362,"max_date":"2024-02-06"},
{"product_id":363,"max_date":"2024-04-12"},
{"product_id":364,"max_date":"2024-01-11"},
{"product_id":365,"max_date":"2024-09-05"},
{"product_id":366,"max_date":"2023-12-11"},
{"product_id":367,"max_date":"2024-07-19"},
{"product_id":368,"max_date":"2024-06-04"},
{"product_id":369,"max_date":"2024-11-20"},
{"product_id":370,"max_date":"2024-11-29"},
{"product_id":371,"max_date":"2024-06-02"},
{"product_id":372,"max_date":"2024-05-23"},
{"product_id":373,"max_date":"2024-03-19"},
{"product_id":374,"max_date":"2024-11-29"},
{"product_id":375,"max_date":"2024-08-15"},
{"product_id":376,"max_date":"2023-12-15"},
{"product_id":377,"max_date":"2024-04-18"},
{"product_id":378,"max_date":"2024-07-04"},
{"product_id":379,"max_date":"2024-10-09"},
{"product_id":380,"max_date":"2024-07-22"},
{"product_id":381,"max_date":"2024-10-08"},
{"product_id":382,"max_date":"2024-06-19"},
{"product_id":383,"max_date":"2024-11-11"},
{"product_id":384,"max_date":"2024-11-23"},
{"product_id":385,"max_date":"2024-10-14"},
{"product_id":386,"max_date":"2024-09-14"},
{"product_id":387,"max_date":"2024-04-20"},
{"product_id":388,"max_date":"2023-10-08"},
{"product_id":389,"max_date":"2024-09-30"},
{"product_id":390,"max_date":"2024-01-07"},
{"product_id":391,"max_date":"2023-12-13"},
{"product_id":392,"max_date":"2024-06-21"},
{"product_id":393,"max_date":"2024-11-03"},
{"product_id":394,"max_date":"2024-04-23"},
{"product_id":395,"max_date":"2024-07-23"},
{"product_id":396,"max_date":"2024-05-10"},
{"product_id":397,"max_date":"2024-06-26"},
{"product_id":398,"max_date":"2024-07-17"},
{"product_id":399,"max_date":"2024-10-05"},
{"product_id":400,"max_date":"2024-04-25"},
{"product_id":401,"max_date":"2024-06-13"},
{"product_id":402,"max_date":"2024-08-18"},
{"product_id":403,"max_date":"2023-11-08"},
{"product_id":404,"max_date":"2024-01-10"},
{"product_id":405,"max_date":"2024-08-31"},
{"product_id":406,"max_date":"2023-11-03"},
{"product_id":407,"max_date":"2024-10-28"},
{"product_id":408,"max_date":"2023-10-09"},
{"product_id":409,"max_date":"2024-02-26"},
{"product_id":410,"max_date":"2024-03-23"},
{"product_id":411,"max_date":"2024-11-19"},
{"product_id":412,"max_date":"2024-05-28"},
{"product_id":413,"max_date":"2024-03-04"},
{"product_id":414,"max_date":"2024-02-29"},
{"product_id":415,"max_date":"2024-02-25"},
{"product_id":416,"max_date":"2024-01-17"},
{"product_id":417,"max_date":"2024-10-29"},
{"product_id":418,"max_date":"2024-05-15"},
{"product_id":419,"max_date":"2024-10-17"},
{"product_id":420,"max_date":"2024-01-12"},
{"product_id":421,"max_date":"2024-07-27"},
{"product_id":422,"max_date":"2024-03-28"},
{"product_id":423,"max_date":"2023-12-02"},
{"product_id":424,"max_date":"2023-10-08"},
{"product_id":425,"max_date":"2024-08-29"},
{"product_id":426,"max_date":"2024-04-16"},
{"product_id":427,"max_date":"2024-07-23"},
{"product_id":428,"max_date":"2024-02-17"},
{"product_id":429,"max_date":"2024-10-18"},
{"product_id":430,"max_date":"2023-12-04"},
{"product_id":431,"max_date":"2024-11-28"},
{"product_id":432,"max_date":"2024-08-23"},
{"product_id":433,"max_date":"2024-09-26"},
{"product_id":434,"max_date":"2024-03-31"},
{"product_id":435,"max_date":"2024-09-15"},
{"product_id":436,"max_date":"2023-12-14"},
{"product_id":437,"max_date":"2024-05-13"},
{"product_id":438,"max_date":"2024-01-10"},
{"product_id":439,"max_date":"2023-12-30"},
{"product_id":440,"max_date":"2024-09-27"},
{"product_id":441,"max_date":"2024-11-22"},
{"product_id":442,"max_date":"2023-11-01"},
{"product_id":443,"max_date":"2024-09-11"},
{"product_id":444,"max_date":"2023-11-27"},
{"product_id":445,"max_date":"2023-10-01"},
{"product_id":446,"max_date":"2024-01-16"},
{"product_id":447,"max_date":"2024-08-26"},
{"product_id":448,"max_date":"2024-07-17"},
{"product_id":449,"max_date":"2024-05-28"},
{"product_id":450,"max_date":"2023-12-30"},
{"product_id":451,"max_date":"2023-11-10"},
{"product_id":452,"max_date":"2024-06-21"},
{"product_id":453,"max_date":"2024-05-15"},
{"product_id":454,"max_date":"2023-11-29"},
{"product_id":455,"max_date":"2023-11-10"},
{"product_id":456,"max_date":"2024-09-19"},
{"product_id":457,"max_date":"2023-10-08"},
{"product_id":458,"max_date":"2024-08-16"},
{"product_id":459,"max_date":"2024-07-16"},
{"product_id":460,"max_date":"2023-12-08"},
{"product_id":461,"max_date":"2023-12-16"},
{"product_id":462,"max_date":"2024-03-07"},
{"product_id":463,"max_date":"2024-10-02"},
{"product_id":464,"max_date":"2024-01-04"},
{"product_id":465,"max_date":"2024-04-12"},
{"product_id":466,"max_date":"2024-08-04"},
{"product_id":467,"max_date":"2024-03-25"},
{"product_id":468,"max_date":"2024-07-26"},
{"product_id":469,"max_date":"2024-04-22"},
{"product_id":470,"max_date":"2024-11-16"},
{"product_id":471,"max_date":"2024-09-09"},
{"product_id":472,"max_date":"2023-12-18"},
{"product_id":473,"max_date":"2024-11-06"},
{"product_id":474,"max_date":"2023-12-15"},
{"product_id":475,"max_date":"2023-10-21"},
{"product_id":476,"max_date":"2024-06-04"},
{"product_id":477,"max_date":"2024-03-17"},
{"product_id":478,"max_date":"2024-07-05"},
{"product_id":479,"max_date":"2024-03-08"},
{"product_id":480,"max_date":"2024-03-27"},
{"product_id":481,"max_date":"2023-10-04"},
{"product_id":482,"max_date":"2024-06-05"},
{"product_id":483,"max_date":"2024-06-18"},
{"product_id":484,"max_date":"2024-02-11"},
{"product_id":485,"max_date":"2024-11-10"},
{"product_id":486,"max_date":"2024-08-11"},
{"product_id":487,"max_date":"2023-10-25"},
{"product_id":488,"max_date":"2024-08-01"},
{"product_id":489,"max_date":"2024-01-05"},
{"product_id":490,"max_date":"2024-01-29"},
{"product_id":491,"max_date":"2024-09-22"},
{"product_id":492,"max_date":"2023-10-16"},
{"product_id":493,"max_date":"2024-02-16"},
{"product_id":494,"max_date":"2023-12-15"},
{"product_id":495,"max_date":"2024-07-12"},
{"product_id":496,"max_date":"2024-01-26"},
{"product_id":497,"max_date":"2024-06-23"},
{"product_id":498,"max_date":"2024-09-19"},
{"product_id":499,"max_date":"2024-09-07"},
{"product_id":500,"max_date":"2024-10-19"},
{"product_id":501,"max_date":"2024-08-06"},
{"product_id":502,"max_date":"2024-02-10"},
{"product_id":503,"max_date":"2024-03-06"},
{"product_id":504,"max_date":"2024-07-10"},
{"product_id":505,"max_date":"2024-01-14"},
{"product_id":506,"max_date":"2024-01-18"},
{"product_id":507,"max_date":"2024-11-09"},
{"product_id":508,"max_date":"2024-03-10"},
{"product_id":509,"max_date":"2024-02-05"},
{"product_id":510,"max_date":"2023-12-25"},
{"product_id":511,"max_date":"2024-08-21"},
{"product_id":512,"max_date":"2024-04-03"},
{"product_id":513,"max_date":"2024-03-01"},
{"product_id":514,"max_date":"2024-01-07"},
{"product_id":515,"max_date":"2023-10-18"},
{"product_id":516,"max_date":"2024-04-16"},
{"product_id":517,"max_date":"2024-05-10"},
{"product_id":518,"max_date":"2024-08-13"},
{"product_id":519,"max_date":"2024-01-22"},
{"product_id":520,"max_date":"2024-01-18"},
{"product_id":521,"max_date":"2024-02-01"},
{"product_id":522,"max_date":"2024-08-20"},
{"product_id":523,"max_date":"2024-07-30"},
{"product_id":524,"max_date":"2024-10-31"},
{"product_id":525,"max_date":"2024-08-22"},
{"product_id":526,"max_date":"2024-07-31"},
{"product_id":527,"max_date":"2024-05-19"},
{"product_id":528,"max_date":"2024-03-25"},
{"product_id":529,"max_date":"2024-05-15"},
{"product_id":530,"max_date":"2024-04-04"},
{"product_id":531,"max_date":"2023-12-20"},
{"product_id":532,"max_date":"2023-11-20"},
{"product_id":533,"max_date":"2023-11-28"},
{"product_id":534,"max_date":"2024-08-02"},
{"product_id":535,"max_date":"2023-12-19"},
{"product_id":536,"max_date":"2024-03-05"},
{"product_id":537,"max_date":"2024-09-21"},
{"product_id":538,"max_date":"2024-07-30"},
{"product_id":539,"max_date":"2024-05-12"},
{"product_id":540,"max_date":"2024-07-08"},
{"product_id":541,"max_date":"2024-04-29"},
{"product_id":542,"max_date":"2024-06-09"},
{"product_id":543,"max_date":"2024-02-16"},
{"product_id":544,"max_date":"2024-08-02"},
{"product_id":545,"max_date":"2024-09-15"},
{"product_id":546,"max_date":"2024-07-10"},
{"product_id":547,"max_date":"2023-11-16"},
{"product_id":548,"max_date":"2023-11-15"},
{"product_id":549,"max_date":"2024-02-23"},
{"product_id":550,"max_date":"2023-11-29"},
{"product_id":551,"max_date":"2024-01-15"},
{"product_id":552,"max_date":"2024-08-08"},
{"product_id":553,"max_date":"2024-02-17"},
{"product_id":554,"max_date":"2023-12-31"},
{"product_id":555,"max_date":"2024-04-27"},
{"product_id":556,"max_date":"2023-12-16"},
{"product_id":557,"max_date":"2023-11-21"},
{"product_id":558,"max_date":"2024-03-07"},
{"product_id":559,"max_date":"2023-11-12"},
{"product_id":560,"max_date":"2024-07-01"},
{"product_id":561,"max_date":"2024-08-03"},
{"product_id":562,"max_date":"2024-01-15"},
{"product_id":563,"max_date":"2024-11-16"},
{"product_id":564,"max_date":"2023-12-13"},
{"product_id":565,"max_date":"2023-10-08"},
{"product_id":566,"max_date":"2024-11-01"},
{"product_id":567,"max_date":"2023-12-13"},
{"product_id":568,"max_date":"2023-10-17"},
{"product_id":569,"max_date":"2024-10-11"},
{"product_id":570,"max_date":"2024-05-14"},
{"product_id":571,"max_date":"2024-06-26"},
{"product_id":572,"max_date":"2024-01-16"},
{"product_id":573,"max_date":"2023-10-27"},
{"product_id":574,"max_date":"2024-06-14"},
{"product_id":575,"max_date":"2023-11-28"},
{"product_id":576,"max_date":"2024-03-15"},
{"product_id":577,"max_date":"2023-12-11"},
{"product_id":578,"max_date":"2023-11-14"},
{"product_id":579,"max_date":"2024-05-31"},
{"product_id":580,"max_date":"2023-11-20"},
{"product_id":581,"max_date":"2023-10-15"},
{"product_id":582,"max_date":"2024-08-16"},
{"product_id":583,"max_date":"2024-10-30"},
{"product_id":584,"max_date":"2024-01-16"},
{"product_id":585,"max_date":"2024-01-06"},
{"product_id":586,"max_date":"2023-12-25"},
{"product_id":587,"max_date":"2024-01-08"},
{"product_id":588,"max_date":"2024-11-17"},
{"product_id":589,"max_date":"2024-08-04"},
{"product_id":590,"max_date":"2023-11-14"},
{"product_id":591,"max_date":"2024-07-25"},
{"product_id":592,"max_date":"2024-11-06"},
{"product_id":593,"max_date":"2024-05-10"},
{"product_id":594,"max_date":"2024-06-13"},
{"product_id":595,"max_date":"2024-10-30"},
{"product_id":596,"max_date":"2023-10-14"},
{"product_id":597,"max_date":"2024-10-16"},
{"product_id":598,"max_date":"2024-01-29"},
{"product_id":599,"max_date":"2024-06-20"},
{"product_id":600,"max_date":"2024-08-18"},
{"product_id":601,"max_date":"2023-12-01"},
{"product_id":602,"max_date":"2023-10-27"},
{"product_id":603,"max_date":"2024-05-15"},
{"product_id":604,"max_date":"2024-08-29"},
{"product_id":605,"max_date":"2024-05-10"},
{"product_id":606,"max_date":"2024-05-08"},
{"product_id":607,"max_date":"2024-10-22"},
{"product_id":608,"max_date":"2024-09-08"},
{"product_id":609,"max_date":"2023-12-02"},
{"product_id":610,"max_date":"2024-07-09"},
{"product_id":611,"max_date":"2023-10-03"},
{"product_id":612,"max_date":"2023-12-19"},
{"product_id":613,"max_date":"2024-06-18"},
{"product_id":614,"max_date":"2023-11-09"},
{"product_id":615,"max_date":"2023-11-01"},
{"product_id":616,"max_date":"2024-02-29"},
{"product_id":617,"max_date":"2023-12-30"},
{"product_id":618,"max_date":"2024-10-15"},
{"product_id":619,"max_date":"2023-12-11"},
{"product_id":620,"max_date":"2024-03-27"},
{"product_id":621,"max_date":"2024-07-15"},
{"product_id":622,"max_date":"2023-11-29"},
{"product_id":623,"max_date":"2024-10-09"},
{"product_id":624,"max_date":"2024-06-07"},
{"product_id":625,"max_date":"2024-10-10"},
{"product_id":626,"max_date":"2024-06-08"},
{"product_id":627,"max_date":"2024-01-02"},
{"product_id":628,"max_date":"2023-11-02"},
{"product_id":629,"max_date":"2024-03-25"},
{"product_id":630,"max_date":"2024-08-25"},
{"product_id":631,"max_date":"2023-11-30"},
{"product_id":632,"max_date":"2024-10-15"},
{"product_id":633,"max_date":"2024-10-25"},
{"product_id":634,"max_date":"2024-11-14"},
{"product_id":635,"max_date":"2024-10-10"},
{"product_id":636,"max_date":"2023-10-14"},
{"product_id":637,"max_date":"2024-08-25"},
{"product_id":638,"max_date":"2024-06-16"},
{"product_id":639,"max_date":"2024-03-01"},
{"product_id":640,"max_date":"2024-07-29"},
{"product_id":641,"max_date":"2024-04-23"},
{"product_id":642,"max_date":"2024-11-21"},
{"product_id":643,"max_date":"2024-07-20"},
{"product_id":644,"max_date":"2024-08-02"},
{"product_id":645,"max_date":"2024-04-21"},
{"product_id":646,"max_date":"2024-03-07"},
{"product_id":647,"max_date":"2024-03-09"},
{"product_id":648,"max_date":"2024-06-10"},
{"product_id":649,"max_date":"2024-01-04"},
{"product_id":650,"max_date":"2024-07-13"},
{"product_id":651,"max_date":"2024-05-19"},
{"product_id":652,"max_date":"2023-11-06"},
{"product_id":653,"max_date":"2024-10-23"},
{"product_id":654,"max_date":"2024-06-23"},
{"product_id":655,"max_date":"2024-07-11"},
{"product_id":656,"max_date":"2024-05-09"},
{"product_id":657,"max_date":"2023-11-06"},
{"product_id":658,"max_date":"2024-04-28"},
{"product_id":659,"max_date":"2023-12-26"},
{"product_id":660,"max_date":"2023-11-19"},
{"product_id":661,"max_date":"2024-09-15"},
{"product_id":662,"max_date":"2024-07-23"},
{"product_id":663,"max_date":"2024-01-29"},
{"product_id":664,"max_date":"2024-10-01"},
{"product_id":665,"max_date":"2024-04-17"},
{"product_id":666,"max_date":"2024-09-30"},
{"product_id":667,"max_date":"2024-08-12"},
{"product_id":668,"max_date":"2024-01-25"},
{"product_id":669,"max_date":"2023-12-07"},
{"product_id":670,"max_date":"2024-11-29"},
{"product_id":671,"max_date":"2024-07-30"},
{"product_id":672,"max_date":"2024-10-16"},
{"product_id":673,"max_date":"2023-12-16"},
{"product_id":674,"max_date":"2024-05-01"},
{"product_id":675,"max_date":"2024-03-04"},
{"product_id":676,"max_date":"2024-08-15"},
{"product_id":677,"max_date":"2024-02-20"},
{"product_id":678,"max_date":"2024-07-20"},
{"product_id":679,"max_date":"2024-09-02"},
{"product_id":680,"max_date":"2024-11-30"},
{"product_id":681,"max_date":"2024-09-22"},
{"product_id":682,"max_date":"2024-06-20"},
{"product_id":683,"max_date":"2024-04-12"},
{"product_id":684,"max_date":"2024-01-01"},
{"product_id":685,"max_date":"2024-11-02"},
{"product_id":686,"max_date":"2024-04-08"},
{"product_id":687,"max_date":"2024-11-30"},
{"product_id":688,"max_date":"2024-01-02"},
{"product_id":689,"max_date":"2023-10-21"},
{"product_id":690,"max_date":"2023-12-18"},
{"product_id":691,"max_date":"2024-08-21"},
{"product_id":692,"max_date":"2023-12-30"},
{"product_id":693,"max_date":"2024-11-28"},
{"product_id":694,"max_date":"2024-11-22"},
{"product_id":695,"max_date":"2024-11-12"},
{"product_id":696,"max_date":"2024-03-30"},
{"product_id":697,"max_date":"2024-10-18"},
{"product_id":698,"max_date":"2024-10-17"},
{"product_id":699,"max_date":"2024-04-13"},
{"product_id":700,"max_date":"2024-11-11"},
{"product_id":701,"max_date":"2024-08-08"},
{"product_id":702,"max_date":"2024-01-30"},
{"product_id":703,"max_date":"2024-05-27"},
{"product_id":704,"max_date":"2024-10-22"},
{"product_id":705,"max_date":"2024-09-29"},
{"product_id":706,"max_date":"2023-12-30"},
{"product_id":707,"max_date":"2024-11-03"},
{"product_id":708,"max_date":"2024-04-29"},
{"product_id":709,"max_date":"2023-11-19"},
{"product_id":710,"max_date":"2023-12-03"},
{"product_id":711,"max_date":"2023-11-24"},
{"product_id":712,"max_date":"2024-08-27"},
{"product_id":713,"max_date":"2024-10-24"},
{"product_id":714,"max_date":"2024-02-28"},
{"product_id":715,"max_date":"2024-03-06"},
{"product_id":716,"max_date":"2024-08-02"},
{"product_id":717,"max_date":"2024-01-27"},
{"product_id":718,"max_date":"2023-12-01"},
{"product_id":719,"max_date":"2023-11-13"},
{"product_id":720,"max_date":"2024-10-02"},
{"product_id":721,"max_date":"2024-10-24"},
{"product_id":722,"max_date":"2024-06-23"},
{"product_id":723,"max_date":"2023-11-20"},
{"product_id":724,"max_date":"2024-05-16"},
{"product_id":725,"max_date":"2024-06-28"},
{"product_id":726,"max_date":"2024-07-26"},
{"product_id":727,"max_date":"2023-10-12"},
{"product_id":728,"max_date":"2024-07-22"},
{"product_id":729,"max_date":"2024-10-21"},
{"product_id":730,"max_date":"2023-11-09"},
{"product_id":731,"max_date":"2023-11-19"},
{"product_id":732,"max_date":"2024-06-12"},
{"product_id":733,"max_date":"2024-05-05"},
{"product_id":734,"max_date":"2023-10-30"},
{"product_id":735,"max_date":"2023-11-27"},
{"product_id":736,"max_date":"2023-11-17"},
{"product_id":737,"max_date":"2024-10-19"},
{"product_id":738,"max_date":"2024-07-07"},
{"product_id":739,"max_date":"2024-06-22"},
{"product_id":740,"max_date":"2023-10-15"},
{"product_id":741,"max_date":"2024-11-19"},
{"product_id":742,"max_date":"2024-10-21"},
{"product_id":743,"max_date":"2023-12-11"},
{"product_id":744,"max_date":"2024-01-14"},
{"product_id":745,"max_date":"2024-01-21"},
{"product_id":746,"max_date":"2024-11-24"},
{"product_id":747,"max_date":"2024-07-02"},
{"product_id":748,"max_date":"2023-11-28"},
{"product_id":749,"max_date":"2024-08-31"},
{"product_id":750,"max_date":"2024-06-14"},
{"product_id":751,"max_date":"2024-06-18"},
{"product_id":752,"max_date":"2024-05-29"},
{"product_id":753,"max_date":"2024-04-28"},
{"product_id":754,"max_date":"2023-10-05"},
{"product_id":755,"max_date":"2024-11-14"},
{"product_id":756,"max_date":"2023-11-25"},
{"product_id":757,"max_date":"2023-12-16"},
{"product_id":758,"max_date":"2023-12-25"},
{"product_id":759,"max_date":"2024-01-03"},
{"product_id":760,"max_date":"2023-12-23"},
{"product_id":761,"max_date":"2024-01-23"},
{"product_id":762,"max_date":"2024-05-09"},
{"product_id":763,"max_date":"2023-11-30"},
{"product_id":764,"max_date":"2024-03-30"},
{"product_id":765,"max_date":"2024-02-21"},
{"product_id":766,"max_date":"2023-10-11"},
{"product_id":767,"max_date":"2024-09-22"},
{"product_id":768,"max_date":"2024-08-26"},
{"product_id":769,"max_date":"2023-10-10"},
{"product_id":770,"max_date":"2023-10-29"},
{"product_id":771,"max_date":"2024-10-31"},
{"product_id":772,"max_date":"2024-02-06"},
{"product_id":773,"max_date":"2024-11-15"},
{"product_id":774,"max_date":"2024-01-14"},
{"product_id":775,"max_date":"2024-10-10"},
{"product_id":776,"max_date":"2023-12-16"},
{"product_id":777,"max_date":"2024-08-30"},
{"product_id":778,"max_date":"2023-10-21"},
{"product_id":779,"max_date":"2024-01-19"},
{"product_id":780,"max_date":"2024-03-19"},
{"product_id":781,"max_date":"2024-07-04"},
{"product_id":782,"max_date":"2024-03-25"},
{"product_id":783,"max_date":"2024-06-23"},
{"product_id":784,"max_date":"2024-04-14"},
{"product_id":785,"max_date":"2024-06-12"},
{"product_id":786,"max_date":"2024-09-16"},
{"product_id":787,"max_date":"2023-12-17"},
{"product_id":788,"max_date":"2024-03-31"},
{"product_id":789,"max_date":"2024-10-28"},
{"product_id":790,"max_date":"2024-04-21"},
{"product_id":791,"max_date":"2024-05-02"},
{"product_id":792,"max_date":"2024-11-21"},
{"product_id":793,"max_date":"2024-07-27"},
{"product_id":794,"max_date":"2024-02-16"},
{"product_id":795,"max_date":"2024-04-11"},
{"product_id":796,"max_date":"2024-08-14"},
{"product_id":797,"max_date":"2023-10-17"},
{"product_id":798,"max_date":"2024-01-17"},
{"product_id":799,"max_date":"2024-02-11"},
{"product_id":800,"max_date":"2023-10-24"},
{"product_id":801,"max_date":"2024-01-05"},
{"product_id":802,"max_date":"2024-06-20"},
{"product_id":803,"max_date":"2024-08-05"},
{"product_id":804,"max_date":"2023-10-17"},
{"product_id":805,"max_date":"2024-02-12"},
{"product_id":806,"max_date":"2024-01-19"},
{"product_id":807,"max_date":"2023-10-16"},
{"product_id":808,"max_date":"2023-11-16"},
{"product_id":809,"max_date":"2023-11-27"},
{"product_id":810,"max_date":"2024-09-16"},
{"product_id":811,"max_date":"2024-06-18"},
{"product_id":812,"max_date":"2024-09-02"},
{"product_id":813,"max_date":"2024-08-26"},
{"product_id":814,"max_date":"2024-01-11"},
{"product_id":815,"max_date":"2024-05-16"},
{"product_id":816,"max_date":"2024-07-03"},
{"product_id":817,"max_date":"2024-09-22"},
{"product_id":818,"max_date":"2024-03-04"},
{"product_id":819,"max_date":"2024-04-17"},
{"product_id":820,"max_date":"2023-11-14"},
{"product_id":821,"max_date":"2024-07-06"},
{"product_id":822,"max_date":"2024-07-18"},
{"product_id":823,"max_date":"2024-01-24"},
{"product_id":824,"max_date":"2023-10-18"},
{"product_id":825,"max_date":"2023-11-18"},
{"product_id":826,"max_date":"2024-03-02"},
{"product_id":827,"max_date":"2024-06-15"},
{"product_id":828,"max_date":"2024-04-20"},
{"product_id":829,"max_date":"2023-11-02"},
{"product_id":830,"max_date":"2024-07-29"},
{"product_id":831,"max_date":"2023-12-28"},
{"product_id":832,"max_date":"2024-10-01"},
{"product_id":833,"max_date":"2024-07-26"},
{"product_id":834,"max_date":"2024-10-30"},
{"product_id":835,"max_date":"2024-07-05"},
{"product_id":836,"max_date":"2024-01-25"},
{"product_id":837,"max_date":"2024-05-13"},
{"product_id":838,"max_date":"2023-12-16"},
{"product_id":839,"max_date":"2024-11-17"},
{"product_id":840,"max_date":"2024-01-19"},
{"product_id":841,"max_date":"2024-11-22"},
{"product_id":842,"max_date":"2024-11-11"},
{"product_id":843,"max_date":"2024-03-18"},
{"product_id":844,"max_date":"2024-06-24"},
{"product_id":845,"max_date":"2023-10-28"},
{"product_id":846,"max_date":"2024-07-04"},
{"product_id":847,"max_date":"2024-02-16"},
{"product_id":848,"max_date":"2024-08-26"},
{"product_id":849,"max_date":"2024-07-12"},
{"product_id":850,"max_date":"2024-11-14"},
{"product_id":851,"max_date":"2024-07-21"},
{"product_id":852,"max_date":"2024-01-30"},
{"product_id":853,"max_date":"2024-11-19"},
{"product_id":854,"max_date":"2024-09-28"},
{"product_id":855,"max_date":"2024-10-23"},
{"product_id":856,"max_date":"2024-05-25"},
{"product_id":857,"max_date":"2024-11-02"},
{"product_id":858,"max_date":"2024-10-13"},
{"product_id":859,"max_date":"2024-05-05"},
{"product_id":860,"max_date":"2024-06-23"},
{"product_id":861,"max_date":"2023-12-04"},
{"product_id":862,"max_date":"2024-05-25"},
{"product_id":863,"max_date":"2024-11-10"},
{"product_id":864,"max_date":"2024-05-18"},
{"product_id":865,"max_date":"2024-06-24"},
{"product_id":866,"max_date":"2024-05-09"},
{"product_id":867,"max_date":"2024-07-03"},
{"product_id":868,"max_date":"2024-10-19"},
{"product_id":869,"max_date":"2024-02-11"},
{"product_id":870,"max_date":"2024-02-28"},
{"product_id":871,"max_date":"2024-01-18"},
{"product_id":872,"max_date":"2024-07-21"},
{"product_id":873,"max_date":"2024-02-27"},
{"product_id":874,"max_date":"2024-11-10"},
{"product_id":875,"max_date":"2024-08-29"},
{"product_id":876,"max_date":"2023-10-27"},
{"product_id":877,"max_date":"2023-12-10"},
{"product_id":878,"max_date":"2024-05-03"},
{"product_id":879,"max_date":"2024-08-06"},
{"product_id":880,"max_date":"2023-11-16"},
{"product_id":881,"max_date":"2023-10-17"},
{"product_id":882,"max_date":"2024-03-24"},
{"product_id":883,"max_date":"2023-10-11"},
{"product_id":884,"max_date":"2024-07-05"},
{"product_id":885,"max_date":"2024-05-31"},
{"product_id":886,"max_date":"2024-05-07"},
{"product_id":887,"max_date":"2024-09-27"},
{"product_id":888,"max_date":"2023-11-16"},
{"product_id":889,"max_date":"2024-09-20"},
{"product_id":890,"max_date":"2024-07-09"},
{"product_id":891,"max_date":"2023-10-29"},
{"product_id":892,"max_date":"2024-11-06"},
{"product_id":893,"max_date":"2024-03-04"},
{"product_id":894,"max_date":"2024-07-28"},
{"product_id":895,"max_date":"2024-08-27"},
{"product_id":896,"max_date":"2024-04-02"},
{"product_id":897,"max_date":"2024-11-12"},
{"product_id":898,"max_date":"2023-12-13"},
{"product_id":899,"max_date":"2024-09-26"},
{"product_id":900,"max_date":"2024-05-19"},
{"product_id":901,"max_date":"2023-12-28"},
{"product_id":902,"max_date":"2024-03-03"},
{"product_id":903,"max_date":"2023-10-19"},
{"product_id":904,"max_date":"2024-10-21"},
{"product_id":905,"max_date":"2024-01-02"},
{"product_id":906,"max_date":"2024-05-04"},
{"product_id":907,"max_date":"2023-10-28"},
{"product_id":908,"max_date":"2024-06-11"},
{"product_id":909,"max_date":"2024-01-05"},
{"product_id":910,"max_date":"2024-05-23"},
{"product_id":911,"max_date":"2024-11-08"},
{"product_id":912,"max_date":"2024-02-10"},
{"product_id":913,"max_date":"2023-12-27"},
{"product_id":914,"max_date":"2024-11-16"},
{"product_id":915,"max_date":"2023-10-14"},
{"product_id":916,"max_date":"2023-10-11"},
{"product_id":917,"max_date":"2024-10-07"},
{"product_id":918,"max_date":"2023-12-18"},
{"product_id":919,"max_date":"2023-10-25"},
{"product_id":920,"max_date":"2024-05-16"},
{"product_id":921,"max_date":"2024-08-20"},
{"product_id":922,"max_date":"2023-12-06"},
{"product_id":923,"max_date":"2023-12-03"},
{"product_id":924,"max_date":"2024-11-15"},
{"product_id":925,"max_date":"2023-10-08"},
{"product_id":926,"max_date":"2024-09-23"},
{"product_id":927,"max_date":"2024-08-06"},
{"product_id":928,"max_date":"2024-04-02"},
{"product_id":929,"max_date":"2023-10-19"},
{"product_id":930,"max_date":"2024-02-26"},
{"product_id":931,"max_date":"2024-04-11"},
{"product_id":932,"max_date":"2024-04-12"},
{"product_id":933,"max_date":"2024-10-31"},
{"product_id":934,"max_date":"2023-10-05"},
{"product_id":935,"max_date":"2024-02-08"},
{"product_id":936,"max_date":"2024-01-24"},
{"product_id":937,"max_date":"2024-11-03"},
{"product_id":938,"max_date":"2024-05-14"},
{"product_id":939,"max_date":"2024-01-07"},
{"product_id":940,"max_date":"2023-11-21"},
{"product_id":941,"max_date":"2024-10-08"},
{"product_id":942,"max_date":"2024-02-17"},
{"product_id":943,"max_date":"2023-12-02"},
{"product_id":944,"max_date":"2024-02-02"},
{"product_id":945,"max_date":"2024-04-14"},
{"product_id":946,"max_date":"2024-07-12"},
{"product_id":947,"max_date":"2024-03-09"},
{"product_id":948,"max_date":"2024-06-30"},
{"product_id":949,"max_date":"2024-01-17"},
{"product_id":950,"max_date":"2023-12-08"},
{"product_id":951,"max_date":"2024-02-12"},
{"product_id":952,"max_date":"2024-11-29"},
{"product_id":953,"max_date":"2024-07-01"},
{"product_id":954,"max_date":"2024-04-26"},
{"product_id":955,"max_date":"2024-04-15"},
{"product_id":956,"max_date":"2024-11-07"},
{"product_id":957,"max_date":"2023-12-29"},
{"product_id":958,"max_date":"2024-10-05"},
{"product_id":959,"max_date":"2024-05-17"},
{"product_id":960,"max_date":"2024-04-18"},
{"product_id":961,"max_date":"2023-11-04"},
{"product_id":962,"max_date":"2024-04-08"},
{"product_id":963,"max_date":"2024-08-02"},
{"product_id":964,"max_date":"2024-02-07"},
{"product_id":965,"max_date":"2024-06-18"},
{"product_id":966,"max_date":"2024-07-25"},
{"product_id":967,"max_date":"2024-09-30"},
{"product_id":968,"max_date":"2024-04-12"},
{"product_id":969,"max_date":"2024-08-19"},
{"product_id":970,"max_date":"2024-02-03"},
{"product_id":971,"max_date":"2024-07-09"},
{"product_id":972,"max_date":"2024-04-24"},
{"product_id":973,"max_date":"2024-04-24"},
{"product_id":974,"max_date":"2023-10-12"},
{"product_id":975,"max_date":"2023-12-01"},
{"product_id":976,"max_date":"2024-03-03"},
{"product_id":977,"max_date":"2023-11-22"},
{"product_id":978,"max_date":"2024-10-25"},
{"product_id":979,"max_date":"2024-08-05"},
{"product_id":980,"max_date":"2024-04-25"},
{"product_id":981,"max_date":"2023-10-03"},
{"product_id":982,"max_date":"2023-10-06"},
{"product_id":983,"max_date":"2024-02-08"},
{"product_id":984,"max_date":"2024-02-29"},
{"product_id":985,"max_date":"2024-01-16"},
{"product_id":986,"max_date":"2024-09-06"},
{"product_id":987,"max_date":"2024-09-11"},
{"product_id":988,"max_date":"2024-05-15"},
{"product_id":989,"max_date":"2024-05-31"},
{"product_id":990,"max_date":"2024-07-20"},
{"product_id":991,"max_date":"2024-01-20"},
{"product_id":992,"max_date":"2024-07-07"},
{"product_id":993,"max_date":"2024-05-02"},
{"product_id":994,"max_date":"2024-05-15"},
{"product_id":995,"max_date":"2024-07-03"},
{"product_id":996,"max_date":"2024-11-15"},
{"product_id":997,"max_date":"2023-10-29"},
{"product_id":998,"max_date":"2024-10-17"},
{"product_id":999,"max_date":"2024-11-27"},
{"product_id":1000,"max_date":"2024-06-09"}]